FIRST_NAME,LAST_NAME,BIRTH_DATE,POSITION
Steve,Rogers,1976/11/01,programmer
Tony,Stark,1986/06/12,programmer
Bruce,Banner,1977/07/22,tester
Donald,Blake,1980/12/30,manager
Peter,Parker,1991/10/04,programmer
Reed,Richards,1982/01/21,manager
Susan,Storm,1973/01/20,programmer
Natasha,Romanov,1979/02/08,programmer
Ororo,Monroe,1985/04/09,manager
Diana,Prince,1990/03/11,programmer
Donna,Troy,1970/01/07,tester
Bruce,Wayne,1984/08/20,tester
Clark,Kent,1956/07/08,CEO
Barry,Allen,1976/09/25,programmer
Billy,Batson,1977/12/16,programmer
Oliver,Queen,1980/02/13,tester
Barbara,Gordon,1991/01/15,programmer
